Journal (reproducible report)
…
library(tidyverse)
library(readxl)

Importing Files

bikes_tbl      <- read_excel("00_data/01_bike_sales/01_raw_data/bikes.xlsx")
orderlines_tbl <- read_excel("00_data/01_bike_sales/01_raw_data/orderlines.xlsx")
bikeshops_tbl  <- read_excel("00_data/01_bike_sales/01_raw_data/bikeshops.xlsx")

Joining Data

left_join(orderlines_tbl, bikes_tbl, by = c("product.id" = "bike.id"))

## # A tibble: 15,644 x 15
##    ...1  order.id order.line order.date          customer.id product.id quantity
##    <chr>    <dbl>      <dbl> <dttm>                    <dbl>      <dbl>    <dbl>
##  1 1            1          1 2015-01-07 00:00:00           2       2681        1
##  2 2            1          2 2015-01-07 00:00:00           2       2411        1
##  3 3            2          1 2015-01-10 00:00:00          10       2629        1
##  4 4            2          2 2015-01-10 00:00:00          10       2137        1
##  5 5            3          1 2015-01-10 00:00:00           6       2367        1
##  6 6            3          2 2015-01-10 00:00:00           6       1973        1
##  7 7            3          3 2015-01-10 00:00:00           6       2422        1
##  8 8            3          4 2015-01-10 00:00:00           6       2655        1
##  9 9            3          5 2015-01-10 00:00:00           6       2247        1
## 10 10           4          1 2015-01-11 00:00:00          22       2408        1
## # ... with 15,634 more rows, and 8 more variables: model <chr>,
## #   model.year <dbl>, frame.material <chr>, weight <dbl>, price <dbl>,
## #   category <chr>, gender <chr>, url <chr>

Chaining commands with the pipe and assigning it to order_items_joined_tbl

bike_orderlines_joined_tbl <- orderlines_tbl %>%
  left_join(bikes_tbl, by = c("product.id" = "bike.id")) %>%
  left_join(bikeshops_tbl, by = c("customer.id" = "bikeshop.id"))

bike_orderlines_joined_tbl

## # A tibble: 15,644 x 19
##    ...1  order.id order.line order.date          customer.id product.id quantity
##    <chr>    <dbl>      <dbl> <dttm>                    <dbl>      <dbl>    <dbl>
##  1 1            1          1 2015-01-07 00:00:00           2       2681        1
##  2 2            1          2 2015-01-07 00:00:00           2       2411        1
##  3 3            2          1 2015-01-10 00:00:00          10       2629        1
##  4 4            2          2 2015-01-10 00:00:00          10       2137        1
##  5 5            3          1 2015-01-10 00:00:00           6       2367        1
##  6 6            3          2 2015-01-10 00:00:00           6       1973        1
##  7 7            3          3 2015-01-10 00:00:00           6       2422        1
##  8 8            3          4 2015-01-10 00:00:00           6       2655        1
##  9 9            3          5 2015-01-10 00:00:00           6       2247        1
## 10 10           4          1 2015-01-11 00:00:00          22       2408        1
## # ... with 15,634 more rows, and 12 more variables: model <chr>,
## #   model.year <dbl>, frame.material <chr>, weight <dbl>, price <dbl>,
## #   category <chr>, gender <chr>, url <chr>, name <chr>, location <chr>,
## #   lat <dbl>, lng <dbl>
…
bike_orderlines_joined_tbl

## # A tibble: 15,644 x 19
##    ...1  order.id order.line order.date          customer.id product.id quantity
##    <chr>    <dbl>      <dbl> <dttm>                    <dbl>      <dbl>    <dbl>
##  1 1            1          1 2015-01-07 00:00:00           2       2681        1
##  2 2            1          2 2015-01-07 00:00:00           2       2411        1
##  3 3            2          1 2015-01-10 00:00:00          10       2629        1
##  4 4            2          2 2015-01-10 00:00:00          10       2137        1
##  5 5            3          1 2015-01-10 00:00:00           6       2367        1
##  6 6            3          2 2015-01-10 00:00:00           6       1973        1
##  7 7            3          3 2015-01-10 00:00:00           6       2422        1
##  8 8            3          4 2015-01-10 00:00:00           6       2655        1
##  9 9            3          5 2015-01-10 00:00:00           6       2247        1
## 10 10           4          1 2015-01-11 00:00:00          22       2408        1
## # ... with 15,634 more rows, and 12 more variables: model <chr>,
## #   model.year <dbl>, frame.material <chr>, weight <dbl>, price <dbl>,
## #   category <chr>, gender <chr>, url <chr>, name <chr>, location <chr>,
## #   lat <dbl>, lng <dbl>
…
  #Re-order:
  
  select(order.id, contains("order"), contains("model"), contains("category"),
         price, quantity, total.price,
         everything()) %>%
  
  #Rename columns (one at the time vs. multiple at once)
  
  rename(bikeshop = name) %>%
  set_names(names(.) %>% str_replace_all("\\.", "_"))

bike_orderlines_wrangled_city_separated_tbl

## # A tibble: 15,644 x 19
##    order_id order_line order_date          model model_year category_1
##       <dbl>      <dbl> <dttm>              <chr>      <dbl> <chr>     
##  1        1          1 2015-01-07 00:00:00 Spec~       2021 Mountain  
##  2        1          2 2015-01-07 00:00:00 Ulti~       2020 Road      
##  3        2          1 2015-01-10 00:00:00 Neur~       2021 Mountain  
##  4        2          2 2015-01-10 00:00:00 Spee~       2019 Road      
##  5        3          1 2015-01-10 00:00:00 Stit~       2020 Mountain  
##  6        3          2 2015-01-10 00:00:00 Road~       2020 Hybrid / ~
##  7        3          3 2015-01-10 00:00:00 Spee~       2020 Road      
##  8        3          4 2015-01-10 00:00:00 Infl~       2021 Road      
##  9        3          5 2015-01-10 00:00:00 Torq~       2020 Mountain  
## 10        4          1 2015-01-11 00:00:00 Ulti~       2020 Road      
## # ... with 15,634 more rows, and 13 more variables: category_2 <chr>,
## #   category_3 <chr>, price <dbl>, quantity <dbl>, total_price <dbl>,
## #   frame_material <chr>, weight <dbl>, url <chr>, bikeshop <chr>, City <chr>,
## #   State <chr>, lat <dbl>, lng <dbl>
…
